…
``` r
# Create data set containing generic name, brand name, and ndc number.
ndc_gen_brand_names <- 
  sdud_2017_2020_z_flags %>%
  distinct(gennme_c, prodnme, ndc)
```

    ## distinct: removed 55,844 rows (>99%), 152 rows remaining

``` r
# Examine data set.
ndc_gen_brand_names
```

    ## # A tibble: 152 x 3
    ##    ndc         gennme_c          prodnme          
    ##    <chr>       <chr>             <chr>            
    ##  1 65862096730 Eszopiclone       ESZOPICLONE      
    ##  2 57237024001 Zaleplon          ZALEPLON         
    ##  3 65862015901 Zolpidem Tartrate ZOLPIDEM TARTRATE
    ##  4 00378531005 Zolpidem Tartrate ZOLPIDEM TARTRATE
    ##  5 10370011610 Zolpidem Tartrate ZOLPIDEM TARTRATE
    ##  6 00093007401 Zolpidem Tartrate ZOLPIDEM TARTRATE
    ##  7 68462038401 Eszopiclone       ESZOPICLONE      
    ##  8 00093553756 Eszopiclone       ESZOPICLONE      
    ##  9 47335030888 Zolpidem Tartrate ZOLPIDEM TARTRATE
    ## 10 00054008525 Zaleplon          ZALEPLON         
    ## # ... with 142 more rows
…
``` r
# Create data set containing generic name, brand name, and ndc number.
ndc_gen_brand_names_rm_ga <- 
  sdud_2017_2020_z_flags_rm_ga %>%
  distinct(gennme_c, prodnme, ndc)
```

    ## distinct: removed 54,968 rows (>99%), 152 rows remaining

``` r
# Examine data set.
ndc_gen_brand_names_rm_ga
```

    ## # A tibble: 152 x 3
    ##    ndc         gennme_c          prodnme          
    ##    <chr>       <chr>             <chr>            
    ##  1 65862096730 Eszopiclone       ESZOPICLONE      
    ##  2 57237024001 Zaleplon          ZALEPLON         
    ##  3 65862015901 Zolpidem Tartrate ZOLPIDEM TARTRATE
    ##  4 00378531005 Zolpidem Tartrate ZOLPIDEM TARTRATE
    ##  5 10370011610 Zolpidem Tartrate ZOLPIDEM TARTRATE
    ##  6 00093007401 Zolpidem Tartrate ZOLPIDEM TARTRATE
    ##  7 68462038401 Eszopiclone       ESZOPICLONE      
    ##  8 00093553756 Eszopiclone       ESZOPICLONE      
    ##  9 47335030888 Zolpidem Tartrate ZOLPIDEM TARTRATE
    ## 10 00054008525 Zaleplon          ZALEPLON         
    ## # ... with 142 more rows
…
